{
  "patientId": "doctor",
  "diagnosis": "ОРВИ",
  "clinicalHistory": "Шел и простудился",
  "startDate": "2020.01.01",
  "endDate": "2020.01.01",
  "outpatientRecordTypeId": "32777610-1944-41f6-aa9e-44bd478792df",
  "prescription": "Постельный режим и малиновый чай"
}
